{ "version": 0.1,
  "creators": [
    { "id": "test.success",
      "is_applicable": "(entity) => getParents(entity).map(par => par.name).includes('TestPreviewRecordType') && getEntityName(entity) === 'TestPreviewRecord-success'",
      "create": "(entity) => 'SUCCESS'"
    },
    { "id": "test.error",
      "is_applicable": "(entity) => getParents(entity).map(par => par.name).includes('TestPreviewRecordType') && getEntityName(entity) === 'TestPreviewRecord-error'",
      "create": "(entity) => new Promise((res,rej) => {rej('Test Error');})"
    },
    { "id": "test.load-forever",
      "is_applicable": "(entity) => getParents(entity).map(par => par.name).includes('TestPreviewRecordType') && getEntityName(entity) === 'TestPreviewRecord-load-forever'",
      "create": "(entity) => new Promise((res,rej) => {})"
    },
    { "id": "test.success-2",
      "is_applicable": "(entity) => getParents(entity).map(par => par.name).includes('TestPreviewRecordType') && getEntityName(entity) !== 'TestPreviewRecord-fall-back'",
      "create": "(entity) => { return plotly_preview.create_plot([{x: [1,2,3,4,5], y: [1,2,4,8,16]}]); }"
    }
  ]
}
